{
  "uid" : "b1a8273437954620fa374b796ffaacdd",
  "name" : "behaviors",
  "children" : [ {
    "name" : "demoGoogleSearchTestWithSteps",
    "uid" : "f29621ce4a1c6275",
    "parentUid" : "b1a8273437954620fa374b796ffaacdd",
    "status" : "passed",
    "time" : {
      "start" : 1542980371360,
      "stop" : 1542980379208,
      "duration" : 7848
    },
    "flaky" : false,
    "parameters" : [ ]
  }, {
    "name" : "googleCheckSearchResult",
    "uid" : "eb1fb6e94aec4f29",
    "parentUid" : "b1a8273437954620fa374b796ffaacdd",
    "status" : "passed",
    "time" : {
      "start" : 1542980382531,
      "stop" : 1542980390053,
      "duration" : 7522
    },
    "flaky" : false,
    "parameters" : [ ]
  } ]
}